{
  "type": "classification",
  "model_name": "atari",
  "model_load": false,
  "layer_structure": "atari",
  "img_width": 84,
  "img_height": 84,
  "img_depth": 3,
  "color_scale": "bgr8",
  "process_image": false,
  "canny": false,
  "supervised_learning": {
    "verbose": 1,
    "hyperparameters": {
      "batch_size": 120,
      "epochs": 10
    },
    "model_save": true,
    "model_save_weights_only": false,
    "log": {
      "performance": false,
      "nn_structure": false,
      "tensor_board": false
    },
    "data_augmentation": {
      "status": false,
      "save_to_dir": false,
      "save_prefix": "racecar_preview",
      "save_format": "jpeg"
    },
    "converter": {
      "camera_topic": "/camera/zed/rgb/image_rect_color/compressed",
      "steering_topic": "/vesc/ackermann_cmd_mux/output",
      "convert_from_bags": false,
      "load_from_data": true,
      "n_data_from_bags": 1,
      "n_data_from_data": 1,
      "data_sub_folders": [
        "racecar"
      ],
      "data_bags": [],
      "bags_to_convert": [],
      "convert_to_dir": "racecar"
    },
    "manual_control": false,
    "train_after_converting": true
  },
  "dqn": {
    "training": false,
    "verbose": {
      "training_progress": false,
      "backward_progress": false,
      "generated_action": false
    },
    "policy": {
      "name": "LinearAnnealedPolicy"
    },
    "nb_steps_warmup": 50000,
    "gamma": 0.99,
    "train_interval": 4,
    "target_model_update": 10000,
    "window_length": 4,
    "learning_rate": 0.00025,
    "limit": 1000000,
    "delta_clip": 1.0,
    "processor": "AtariProcessor",
    "double_dqn": true,
    "dueling_network": false,
    "dueling_type": "avg",
    "weights": {
      "save": true,
      "save_after_steps": 100000,
      "overwrite": true,
      "load": false,
      "file": "../trained_data/dqn_cartpole.h5f"
    },
    "history_condition": {
      "finishing": true,
      "mean_rewards": 195,
      "qty_of_episode_history": 100
    }
  },
  "visualizing": {
    "subscribe": "/camera/zed/rgb/image_rect_color/compressed",
    "publish": "/camera/zed/rgb/image_rect_color/vis",
    "queue_size": 1,
    "n_data_from_data": 50,
    "public": true,
    "modifier": "relu",
    "layer_idx": -1,
    "class_idx": false,
    "load_dqn_weights": true
  },
  "action_space": {
    "steer": {
      "action_max_limit": 1,
      "action_min_limit": -1,
      "action_decimal_point": 1,
      "actions_num": 20,
      "actions_num_output": 20
    },
    "speed": {
      "action_max_limit": 3,
      "action_min_limit": -3,
      "action_decimal_point": 1,
      "actions_num": 10,
      "actions_num_output": 30
    }
  },
  "agent_node": {
    "log_generated_actions": false,
    "log_episode_summary": true,
    "remove_dropout_during_training": true
  },
  "env_node": {
    "manual_control": true,
    "robot_model_name": "racecar",
    "collision": {
      "reset_model_pos": true,
      "reset_model_speed": true
    },
    "init": {
      "position": {
        "x": 4.053079,
        "y": 4.580415,
        "z": 0.1
      },
      "orientation": {
        "x": 0,
        "y": 0,
        "z": 3.126911,
        "w": 0
      }
    }
  }
}
